-8 -16 -24 -32 -8 -48 -56 744
992
-48 -24 72 -64 56 -48 632
-24 -32 -56 32 -40 -48 712
48 -8 -56 32 -40 -64 696
-56 -16 -40 -48 -16 -56 712
-32 -64 48 -240 -72 496
-272 72 -184 -8 -24 392
16 -24 8 -48 -56 -40 -32 712
24 -40 -48 -72 -64 704 
