104 -40 832
336 -48 592
-40 88 -40 -40 752
640 -8 328
-640 344
992
-40 -40 -40 -40 -40 -40 -40 -40 -40 -40 -40 -40 -40 -40 320
-800 184
-352 -32 576 -8
832 -40 104
8 -16 64 -40 32 -24 32 -16 -24 -32 -40 576
